player_up player_up 100000000 player_up_1 100000000 player_up_2 100000000

player_down player_down 100000000 player_down_1 100000000 player_down_2 100000000

player_left player_left 100000000 player_left_1 100000000 player_left_2 100000000

player_right player_right 100000000 player_right_1 100000000 player_right_2 100000000

player_dead player_dead1 500000000 player_dead2 500000000 player_dead3 500000000

balloom_left balloom_left1 100000000 balloom_left2 100000000 balloom_left3 100000000

balloom_right balloom_right1 100000000 balloom_right2 100000000 balloom_right3 100000000

balloom_dead balloom_dead 100000000

oneal_left oneal_left1 100000000 oneal_left2 100000000 oneal_left3 100000000

oneal_right oneal_right1 100000000 oneal_right2 100000000 oneal_right3

oneal_dead oneal_dead 100000000

doll_left doll_left1 100000000 doll_left2 100000000 doll_left3 100000000

doll_right doll_right1 100000000 doll_right2 100000000 doll_right3 100000000

doll_dead doll_dead 100000000

minvo_left minvo_left1 100000000 minvo_left2 100000000 minvo_left3 100000000

minvo_right minvo_right1 100000000 minvo_right2 100000000 minvo_right3 100000000

minvo_dead minvo_dead 100000000

kondoria_left kondoria_left1 100000000 kondoria_left1 100000000 kondoria_left1 100000000

kondoria_right kondoria_right1 100000000 kondoria_right1 100000000 kondoria_right1 100000000

kondoria_dead kondoria_dead 100000000

mob_dead mob_dead1 100000000 mob_dead2 100000000 mob_dead3 100000000

bomb bomb 700000000 bomb_1 700000000 bomb_2 700000000

bomb_exploded bomb_exploded 130000000 bomb_exploded1 130000000 bomb_exploded2 130000000

explosion_vertical explosion_vertical 130000000 explosion_vertical1 130000000 explosion_vertical2 130000000

explosion_horizontal explosion_horizontal 130000000 explosion_horizontal1 130000000 explosion_horizontal2 130000000

explosion_horizontal_left_last explosion_horizontal_left_last 130000000 explosion_horizontal_left_last1 130000000 explosion_horizontal_left_last2 130000000

explosion_horizontal_right_last explosion_horizontal_right_last 130000000 explosion_horizontal_right_last1 130000000 explosion_horizontal_right_last2 130000000

explosion_vertical_top_last explosion_vertical_top_last 130000000 explosion_vertical_top_last1 130000000 explosion_vertical_top_last2 130000000

explosion_vertical_down_last explosion_vertical_down_last 130000000 explosion_vertical_down_last1 130000000 explosion_vertical_down_last2 130000000

brick_exploded brick_exploded 100000000 brick_exploded1 300000000 brick_exploded2 300000000